…
data("example_data")
example_data
#> # A tibble: 40 x 4
#>       Id Target                    Response                    human
#>    <dbl> <chr>                     <chr>                       <dbl>
#>  1     5 mate denotes a judgement  made the dinner in it           1
#>  2     5 its harmful note abounds  it's not for the bounce         1
#>  3     5 butcher in the middle     the shirt in the middle         3
#>  4     5 rampant boasting captain  rubbed against the captain      1
#>  5     5 avoid or beat command     advert the beat commend         1
#>  6     5 rocking modern poster     wrecking minor poacher          0
#>  7     5 resting older earring     resting alert hearing           1
#>  8     5 indeed a tax ascent       indeed the dash was sent        2
#>  9     5 pain can follow agents    thank for guidance              0
#> 10     5 remove and name for stake remember the name for steak     3
#> # ... with 30 more rows
```

``` r
example_data %>%
  autoscore() %>%   ## using all the defaults
  as.tibble()       ## to shorted output
#> Note: Homophones in data(homophones) were used.
#> # A tibble: 40 x 6
#>       id target                 response                 human robot equal
#>    <dbl> <fct>                  <fct>                    <dbl> <int> <lgl>
#>  1     5 mate denotes a judgem… made the dinner in it        1     1 TRUE 
#>  2     5 its harmful note abou… it's not for the bounce      1     1 TRUE 
#>  3     5 butcher in the middle  the shirt in the middle      3     4 FALSE
#>  4     5 rampant boasting capt… rubbed against the capt…     1     1 TRUE 
#>  5     5 avoid or beat command  advert the beat commend      1     1 TRUE 
#>  6     5 rocking modern poster  wrecking minor poacher       0     0 TRUE 
#>  7     5 resting older earring  resting alert hearing        1     1 TRUE 
#>  8     5 indeed a tax ascent    indeed the dash was sent     2     2 TRUE 
#>  9     5 pain can follow agents thank for guidance           0     0 TRUE 
#> 10     5 remove and name for s… remember the name for s…     3     3 TRUE 
#> # ... with 30 more rows
```
…
